Stat131A-Project
…
lm1 %>%
  glance() %>%
  select(df, df.residual, statistic, p.value)

# A tibble: 1 × 4
     df df.residual statistic  p.value
  <dbl>       <int>     <dbl>    <dbl>
1    22         236      7.43 3.62e-17

lm1 %>%
  tidy() %>%
  select(term, estimate, std.error, statistic, p.value)

# A tibble: 23 × 5
   term                   estimate std.error statistic  p.value
   <chr>                     <dbl>     <dbl>     <dbl>    <dbl>
 1 (Intercept)         -1992.      1095.      -1.82    0.0703  
 2 statusD              -508.       151.      -3.35    0.000932
 3 statusCL             -586.       227.      -2.58    0.0105  
 4 drugD-penicillamine     3.28     111.       0.0295  0.976   
 5 age                    -0.00617    0.0166  -0.371   0.711   
 6 sexM                   78.5      189.       0.415   0.679   
 7 ascitesN              -57.7      307.      -0.188   0.851   
 8 hepatomegalyN          -0.193    129.      -0.00150 0.999   
 9 spidersN               30.7      139.       0.221   0.825   
10 edemaN                396.       331.       1.20    0.233   
# ℹ 13 more rows
…
There still seems to be a slight heteroscedasticity/variance problem with the data increasing in variance with the fitted values. So the constant variance for error terms assumption is violated.

Question 5

 lm2 %>%
  tidy() %>%
  select(term, estimate, std.error, statistic, p.value)

# A tibble: 23 × 5
   term                  estimate std.error statistic    p.value
   <chr>                    <dbl>     <dbl>     <dbl>      <dbl>
 1 (Intercept)         -998.       965.      -1.03    0.302     
 2 statusD             -638.       135.      -4.72    0.00000394
 3 statusCL            -634.       219.      -2.90    0.00407   
 4 drugD-penicillamine   32.5      103.       0.314   0.754     
 5 age                   -0.00521    0.0153  -0.340   0.734     
 6 sexM                 206.       176.       1.17    0.243     
 7 ascitesN             228.       264.       0.863   0.389     
 8 hepatomegalyN         35.0      122.       0.287   0.774     
 9 spidersN               1.24     125.       0.00991 0.992     
10 edemaN               192.       281.       0.684   0.495     
# ℹ 13 more rows
…
